Tuning and comparing models • workflowsets
…
The result column now has the results of each tune_grid() call.

From these results, we can get quick assessments of how well these models classified the data:

rank_results(all_workflows, rank_metric = "roc_auc")
#> # A tibble: 84 × 9
#>    wflow_id   .config .metric  mean std_err     n preprocessor model  rank
#>    <chr>      <chr>   <chr>   <dbl>   <dbl> <int> <chr>        <chr> <int>
#>  1 formula_m… Prepro… accura… 0.911 0.00407    25 formula      disc…     1
#>  2 formula_m… Prepro… roc_auc 0.969 0.00319    25 formula      disc…     1
#>  3 formula_m… Prepro… accura… 0.904 0.00388    25 formula      disc…     2
#>  4 formula_m… Prepro… roc_auc 0.968 0.00213    25 formula      disc…     2
#>  5 formula_r… Prepro… accura… 0.872 0.00547    25 formula      disc…     3
#>  6 formula_r… Prepro… roc_auc 0.952 0.00293    25 formula      disc…     3
#>  7 formula_r… Prepro… accura… 0.858 0.00564    25 formula      disc…     4
#>  8 formula_r… Prepro… roc_auc 0.951 0.00253    25 formula      disc…     4
#>  9 formula_r… Prepro… accura… 0.837 0.00712    25 formula      disc…     5
#> 10 formula_r… Prepro… roc_auc 0.951 0.00290    25 formula      disc…     5
#> # … with 74 more rows
…
Not much of a difference in performance; it may be prudent to use the additive model (via prod_degree = 1).

We can also pull out the results of tune_grid() for this model:

mars_results <- 
  all_workflows %>% 
  extract_workflow_set_result("formula_mars")
mars_results
#> # Tuning results
#> # Bootstrap sampling 
#> # A tibble: 25 × 4
#>    splits            id          .metrics         .notes          
#>    <list>            <chr>       <list>           <list>          
#>  1 <split [375/134]> Bootstrap01 <tibble [4 × 5]> <tibble [0 × 3]>
#>  2 <split [375/132]> Bootstrap02 <tibble [4 × 5]> <tibble [0 × 3]>
#>  3 <split [375/142]> Bootstrap03 <tibble [4 × 5]> <tibble [0 × 3]>
#>  4 <split [375/146]> Bootstrap04 <tibble [4 × 5]> <tibble [0 × 3]>
#>  5 <split [375/135]> Bootstrap05 <tibble [4 × 5]> <tibble [0 × 3]>
#>  6 <split [375/131]> Bootstrap06 <tibble [4 × 5]> <tibble [0 × 3]>
#>  7 <split [375/139]> Bootstrap07 <tibble [4 × 5]> <tibble [0 × 3]>
#>  8 <split [375/136]> Bootstrap08 <tibble [4 × 5]> <tibble [0 × 3]>
#>  9 <split [375/137]> Bootstrap09 <tibble [4 × 5]> <tibble [0 × 3]>
#> 10 <split [375/139]> Bootstrap10 <tibble [4 × 5]> <tibble [0 × 3]>
#> # … with 15 more rows
…
The workflow set allows us to screen many models to find one that does very well. This can be combined with parallel processing and, especially, racing methods from the finetune package to optimize efficiency.

Extracting information from the results

Recall that we added an option to the CART model to extract the model results. Let’s pull out the CART tuning results and see what we have:

cart_res <- 
   all_workflows %>% 
   extract_workflow_set_result("formula_cart")
cart_res
#> # Tuning results
#> # Bootstrap sampling 
#> # A tibble: 25 × 5
#>    splits            id          .metrics          .notes   .extracts
#>    <list>            <chr>       <list>            <list>   <list>   
#>  1 <split [375/134]> Bootstrap01 <tibble [40 × 6]> <tibble> <tibble> 
#>  2 <split [375/132]> Bootstrap02 <tibble [40 × 6]> <tibble> <tibble> 
#>  3 <split [375/142]> Bootstrap03 <tibble [40 × 6]> <tibble> <tibble> 
#>  4 <split [375/146]> Bootstrap04 <tibble [40 × 6]> <tibble> <tibble> 
#>  5 <split [375/135]> Bootstrap05 <tibble [40 × 6]> <tibble> <tibble> 
#>  6 <split [375/131]> Bootstrap06 <tibble [40 × 6]> <tibble> <tibble> 
#>  7 <split [375/139]> Bootstrap07 <tibble [40 × 6]> <tibble> <tibble> 
#>  8 <split [375/136]> Bootstrap08 <tibble [40 × 6]> <tibble> <tibble> 
#>  9 <split [375/137]> Bootstrap09 <tibble [40 × 6]> <tibble> <tibble> 
#> 10 <split [375/139]> Bootstrap10 <tibble [40 × 6]> <tibble> <tibble> 
#> # … with 15 more rows
…
Let’s slim that down by keeping the ones that correspond to the best tuning parameters:

# Get the best results
best_cart <- select_best(cart_res, metric = "roc_auc")

cart_wflows <- 
   cart_res %>% 
   select(id, .extracts) %>% 
   unnest(cols = .extracts) %>% 
   inner_join(best_cart)
#> Joining, by = c("cost_complexity", "min_n", ".config")

cart_wflows
#> # A tibble: 25 × 5
#>    id          cost_complexity min_n .extracts  .config              
#>    <chr>                 <dbl> <int> <list>     <chr>                
#>  1 Bootstrap01   0.00000000598    20 <workflow> Preprocessor1_Model02
#>  2 Bootstrap02   0.00000000598    20 <workflow> Preprocessor1_Model02
#>  3 Bootstrap03   0.00000000598    20 <workflow> Preprocessor1_Model02
#>  4 Bootstrap04   0.00000000598    20 <workflow> Preprocessor1_Model02
#>  5 Bootstrap05   0.00000000598    20 <workflow> Preprocessor1_Model02
#>  6 Bootstrap06   0.00000000598    20 <workflow> Preprocessor1_Model02
#>  7 Bootstrap07   0.00000000598    20 <workflow> Preprocessor1_Model02
#>  8 Bootstrap08   0.00000000598    20 <workflow> Preprocessor1_Model02
#>  9 Bootstrap09   0.00000000598    20 <workflow> Preprocessor1_Model02
#> 10 Bootstrap10   0.00000000598    20 <workflow> Preprocessor1_Model02
#> # … with 15 more rows
…
cart_wflows$.extracts[[1]] %>% num_nodes()

Now let’s create a column with the results for each resample:

cart_wflows <- 
   cart_wflows %>% 
   mutate(num_nodes = map_int(.extracts, num_nodes))
cart_wflows
#> # A tibble: 25 × 6
#>    id          cost_complexity min_n .extracts  .config          num_nodes
#>    <chr>                 <dbl> <int> <list>     <chr>                <int>
#>  1 Bootstrap01   0.00000000598    20 <workflow> Preprocessor1_M…         9
#>  2 Bootstrap02   0.00000000598    20 <workflow> Preprocessor1_M…         9
#>  3 Bootstrap03   0.00000000598    20 <workflow> Preprocessor1_M…         5
#>  4 Bootstrap04   0.00000000598    20 <workflow> Preprocessor1_M…         6
#>  5 Bootstrap05   0.00000000598    20 <workflow> Preprocessor1_M…        10
#>  6 Bootstrap06   0.00000000598    20 <workflow> Preprocessor1_M…         6
#>  7 Bootstrap07   0.00000000598    20 <workflow> Preprocessor1_M…         7
#>  8 Bootstrap08   0.00000000598    20 <workflow> Preprocessor1_M…         3
#>  9 Bootstrap09   0.00000000598    20 <workflow> Preprocessor1_M…         8
#> 10 Bootstrap10   0.00000000598    20 <workflow> Preprocessor1_M…         5
#> # … with 15 more rows
…
