Obtain and format results produced by tuning functions for workflow sets — collect_metrics.workflow_set • workflowsets
…
#> # A workflow set/tibble: 6 x 6
#>   wflow_id        preproc model          workflow  option         result        
#>   <chr>           <chr>   <chr>          <list>    <list>         <list>        
#> 1 none_knn        recipe  nearest_neigh… <workflo… <named list [… <tibble [1 × …
#> 2 none_logistic   recipe  logistic_reg   <workflo… <named list [… <tibble [1 × …
#> 3 pca_knn         recipe  nearest_neigh… <workflo… <named list [… <tibble [1 × …
#> 4 pca_logistic    recipe  logistic_reg   <workflo… <named list [… <tibble [1 × …
#> 5 sp_sign_knn     recipe  nearest_neigh… <workflo… <named list [… <tibble [1 × …
#> 6 sp_sign_logist… recipe  logistic_reg   <workflo… <named list [… <tibble [1 × …
collect_metrics(cell_models)

#> # A tibble: 36 x 9
#>    wflow_id .config      preproc model    .metric .estimator  mean     n std_err
#>    <chr>    <chr>        <chr>   <chr>    <chr>   <chr>      <dbl> <int>   <dbl>
#>  1 none_knn Preprocesso… recipe  nearest… roc_auc binary     0.873     1      NA
#>  2 none_knn Preprocesso… recipe  nearest… roc_auc binary     0.866     1      NA
#>  3 none_knn Preprocesso… recipe  nearest… roc_auc binary     0.888     1      NA
#>  4 none_knn Preprocesso… recipe  nearest… roc_auc binary     0.876     1      NA
#>  5 none_knn Preprocesso… recipe  nearest… roc_auc binary     0.891     1      NA
#>  6 none_knn Preprocesso… recipe  nearest… roc_auc binary     0.848     1      NA
#>  7 none_knn Preprocesso… recipe  nearest… roc_auc binary     0.886     1      NA
#>  8 none_knn Preprocesso… recipe  nearest… roc_auc binary     0.887     1      NA
#>  9 none_knn Preprocesso… recipe  nearest… roc_auc binary     0.870     1      NA
#> 10 none_knn Preprocesso… recipe  nearest… roc_auc binary     0.772     1      NA
#> # … with 26 more rows

# Alternatively, if the tuning parameter values are needed:
cell_models %>%
  dplyr::filter(grepl("knn", wflow_id)) %>%
  mutate(metrics = map(result, collect_metrics)) %>%
  dplyr::select(wflow_id, metrics) %>%
  tidyr::unnest(cols = metrics)

#> # A tibble: 30 x 10
#>    wflow_id neighbors weight_func .metric .estimator  mean     n std_err .config
#>    <chr>        <int> <chr>       <chr>   <chr>      <dbl> <int>   <dbl> <chr>  
#>  1 none_knn         9 biweight    roc_auc binary     0.873     1      NA Prepro…
#>  2 none_knn         5 cos         roc_auc binary     0.866     1      NA Prepro…
#>  3 none_knn        13 epanechnik… roc_auc binary     0.888     1      NA Prepro…
#>  4 none_knn         7 gaussian    roc_auc binary     0.876     1      NA Prepro…
#>  5 none_knn        14 inv         roc_auc binary     0.891     1      NA Prepro…
#>  6 none_knn         3 optimal     roc_auc binary     0.848     1      NA Prepro…
#>  7 none_knn        11 rank        roc_auc binary     0.886     1      NA Prepro…
#>  8 none_knn        10 rectangular roc_auc binary     0.887     1      NA Prepro…
#>  9 none_knn         6 triangular  roc_auc binary     0.870     1      NA Prepro…
#> 10 none_knn         1 triweight   roc_auc binary     0.772     1      NA Prepro…
#> # … with 20 more rows, and 1 more variable: num_comp <int>
…
