Tuning and Comparing Models • workflowsets
…
The result column now has the results of each tune_grid() call.

From these results, we can get quick assessments of how well these models classified the data:

rank_results(all_workflows, rank_metric = "roc_auc")
#> # A tibble: 84 x 9
#>    wflow_id    .config    .metric  mean std_err     n preprocessor model    rank
#>    <chr>       <chr>      <chr>   <dbl>   <dbl> <int> <chr>        <chr>   <int>
#>  1 formula_ma… Preproces… accura… 0.883 0.00412    25 formula      discri…     1
#>  2 formula_ma… Preproces… roc_auc 0.952 0.00285    25 formula      discri…     1
#>  3 formula_ma… Preproces… accura… 0.886 0.00402    25 formula      discri…     2
#>  4 formula_ma… Preproces… roc_auc 0.950 0.00324    25 formula      discri…     2
#>  5 formula_re… Preproces… accura… 0.872 0.00547    25 formula      discri…     3
#>  6 formula_re… Preproces… roc_auc 0.946 0.00340    25 formula      discri…     3
#>  7 formula_re… Preproces… accura… 0.849 0.00796    25 formula      discri…     4
#>  8 formula_re… Preproces… roc_auc 0.945 0.00350    25 formula      discri…     4
#>  9 formula_re… Preproces… accura… 0.856 0.00647    25 formula      discri…     5
#> 10 formula_re… Preproces… roc_auc 0.942 0.00356    25 formula      discri…     5
#> # … with 74 more rows
…
mars_results <- 
  all_workflows %>% 
  pull_workflow_result("formula_mars")
mars_results
#> # Tuning results
#> # Bootstrap sampling 
#> # A tibble: 25 x 4
#>    splits            id          .metrics         .notes          
#>    <list>            <chr>       <list>           <list>          
#>  1 <split [375/134]> Bootstrap01 <tibble [4 × 5]> <tibble [0 × 1]>
#>  2 <split [375/132]> Bootstrap02 <tibble [4 × 5]> <tibble [0 × 1]>
#>  3 <split [375/142]> Bootstrap03 <tibble [4 × 5]> <tibble [0 × 1]>
#>  4 <split [375/146]> Bootstrap04 <tibble [4 × 5]> <tibble [0 × 1]>
#>  5 <split [375/135]> Bootstrap05 <tibble [4 × 5]> <tibble [0 × 1]>
#>  6 <split [375/131]> Bootstrap06 <tibble [4 × 5]> <tibble [0 × 1]>
#>  7 <split [375/139]> Bootstrap07 <tibble [4 × 5]> <tibble [0 × 1]>
#>  8 <split [375/136]> Bootstrap08 <tibble [4 × 5]> <tibble [0 × 1]>
#>  9 <split [375/137]> Bootstrap09 <tibble [4 × 5]> <tibble [0 × 1]>
#> 10 <split [375/139]> Bootstrap10 <tibble [4 × 5]> <tibble [0 × 1]>
#> # … with 15 more rows
…
