Obtain and format results produced by tuning functions for workflow sets — collect_metrics.workflow_set • workflowsets
…
two_class_res
#> # A workflow set/tibble: 6 × 4
#>   wflow_id      info             option    result   
#>   <chr>         <list>           <list>    <list>   
#> 1 none_cart     <tibble [1 × 4]> <opts[3]> <tune[+]>
#> 2 none_glm      <tibble [1 × 4]> <opts[3]> <rsmp[+]>
#> 3 none_mars     <tibble [1 × 4]> <opts[3]> <tune[+]>
#> 4 yj_trans_cart <tibble [1 × 4]> <opts[3]> <tune[+]>
#> 5 yj_trans_glm  <tibble [1 × 4]> <opts[3]> <rsmp[+]>
#> 6 yj_trans_mars <tibble [1 × 4]> <opts[3]> <tune[+]>

# ------------------------------------------------------------------------------
# \donttest{
collect_metrics(two_class_res)
#> # A tibble: 52 × 9
#>    wflow_id  .config       preproc model .metric .estimator  mean     n
#>    <chr>     <chr>         <chr>   <chr> <chr>   <chr>      <dbl> <int>
#>  1 none_cart Preprocessor… formula deci… accura… binary     0.777     5
#>  2 none_cart Preprocessor… formula deci… roc_auc binary     0.839     5
#>  3 none_cart Preprocessor… formula deci… accura… binary     0.784     5
#>  4 none_cart Preprocessor… formula deci… roc_auc binary     0.841     5
#>  5 none_cart Preprocessor… formula deci… accura… binary     0.791     5
#>  6 none_cart Preprocessor… formula deci… roc_auc binary     0.853     5
#>  7 none_cart Preprocessor… formula deci… accura… binary     0.814     5
#>  8 none_cart Preprocessor… formula deci… roc_auc binary     0.829     5
#>  9 none_cart Preprocessor… formula deci… accura… binary     0.788     5
#> 10 none_cart Preprocessor… formula deci… roc_auc binary     0.852     5
#> # ℹ 42 more rows
#> # ℹ 1 more variable: std_err <dbl>

# Alternatively, if the tuning parameter values are needed:
two_class_res |>
  dplyr::filter(grepl("cart", wflow_id)) |>
  mutate(metrics = map(result, collect_metrics)) |>
  dplyr::select(wflow_id, metrics) |>
  tidyr::unnest(cols = metrics)
#> # A tibble: 40 × 9
#>    wflow_id  cost_complexity min_n .metric  .estimator  mean     n
#>    <chr>               <dbl> <int> <chr>    <chr>      <dbl> <int>
#>  1 none_cart        2.28e- 7    13 accuracy binary     0.777     5
#>  2 none_cart        2.28e- 7    13 roc_auc  binary     0.839     5
#>  3 none_cart        1.32e- 5    16 accuracy binary     0.784     5
#>  4 none_cart        1.32e- 5    16 roc_auc  binary     0.841     5
#>  5 none_cart        8.19e-10    26 accuracy binary     0.791     5
#>  6 none_cart        8.19e-10    26 roc_auc  binary     0.853     5
#>  7 none_cart        9.52e- 3     9 accuracy binary     0.814     5
#>  8 none_cart        9.52e- 3     9 roc_auc  binary     0.829     5
#>  9 none_cart        4.76e- 7    20 accuracy binary     0.788     5
#> 10 none_cart        4.76e- 7    20 roc_auc  binary     0.852     5
#> # ℹ 30 more rows
#> # ℹ 2 more variables: std_err <dbl>, .config <chr>
# }

collect_metrics(two_class_res, summarize = FALSE)
#> # A tibble: 260 × 8
#>    wflow_id  .config   preproc model id    .metric .estimator .estimate
#>    <chr>     <chr>     <chr>   <chr> <chr> <chr>   <chr>          <dbl>
#>  1 none_cart Preproce… formula deci… Fold1 accura… binary         0.786
#>  2 none_cart Preproce… formula deci… Fold1 roc_auc binary         0.875
#>  3 none_cart Preproce… formula deci… Fold2 accura… binary         0.766
#>  4 none_cart Preproce… formula deci… Fold2 roc_auc binary         0.851
#>  5 none_cart Preproce… formula deci… Fold3 accura… binary         0.778
#>  6 none_cart Preproce… formula deci… Fold3 roc_auc binary         0.848
#>  7 none_cart Preproce… formula deci… Fold4 accura… binary         0.766
#>  8 none_cart Preproce… formula deci… Fold4 roc_auc binary         0.779
#>  9 none_cart Preproce… formula deci… Fold5 accura… binary         0.791
#> 10 none_cart Preproce… formula deci… Fold5 roc_auc binary         0.841
#> # ℹ 250 more rows
…
