Rank the results by a metric — rank_results • workflowsets
…
    Examples

chi_features_res
#> # A workflow set/tibble: 3 × 4
#>   wflow_id         info             option    result   
#>   <chr>            <list>           <list>    <list>   
#> 1 date_lm          <tibble [1 × 4]> <opts[2]> <rsmp[+]>
#> 2 plus_holidays_lm <tibble [1 × 4]> <opts[2]> <rsmp[+]>
#> 3 plus_pca_lm      <tibble [1 × 4]> <opts[3]> <tune[+]>

rank_results(chi_features_res)
#> # A tibble: 40 × 9
#>    wflow_id   .config .metric  mean std_err     n preprocessor model  rank
#>    <chr>      <chr>   <chr>   <dbl>   <dbl> <int> <chr>        <chr> <int>
#>  1 plus_pca_… Prepro… rmse    0.574      NA     1 recipe       line…     1
#>  2 plus_pca_… Prepro… rsq     0.989      NA     1 recipe       line…     1
#>  3 plus_pca_… Prepro… rmse    0.586      NA     1 recipe       line…     2
#>  4 plus_pca_… Prepro… rsq     0.989      NA     1 recipe       line…     2
#>  5 plus_pca_… Prepro… rmse    0.590      NA     1 recipe       line…     3
#>  6 plus_pca_… Prepro… rsq     0.988      NA     1 recipe       line…     3
#>  7 plus_pca_… Prepro… rmse    0.591      NA     1 recipe       line…     4
#>  8 plus_pca_… Prepro… rsq     0.988      NA     1 recipe       line…     4
#>  9 plus_pca_… Prepro… rmse    0.594      NA     1 recipe       line…     5
#> 10 plus_pca_… Prepro… rsq     0.989      NA     1 recipe       line…     5
#> # ℹ 30 more rows
rank_results(chi_features_res, select_best = TRUE)
#> # A tibble: 6 × 9
#>   wflow_id    .config .metric  mean std_err     n preprocessor model  rank
#>   <chr>       <chr>   <chr>   <dbl>   <dbl> <int> <chr>        <chr> <int>
#> 1 plus_pca_lm Prepro… rmse    0.574      NA     1 recipe       line…     1
#> 2 plus_pca_lm Prepro… rsq     0.989      NA     1 recipe       line…     1
#> 3 plus_holid… Prepro… rmse    0.646      NA     1 recipe       line…     2
#> 4 plus_holid… Prepro… rsq     0.986      NA     1 recipe       line…     2
#> 5 date_lm     Prepro… rmse    0.733      NA     1 recipe       line…     3
#> 6 date_lm     Prepro… rsq     0.982      NA     1 recipe       line…     3
rank_results(chi_features_res, rank_metric = "rsq")
#> # A tibble: 40 × 9
#>    wflow_id   .config .metric  mean std_err     n preprocessor model  rank
#>    <chr>      <chr>   <chr>   <dbl>   <dbl> <int> <chr>        <chr> <int>
#>  1 plus_pca_… Prepro… rmse    0.594      NA     1 recipe       line…     1
#>  2 plus_pca_… Prepro… rsq     0.989      NA     1 recipe       line…     1
#>  3 plus_pca_… Prepro… rmse    0.574      NA     1 recipe       line…     2
#>  4 plus_pca_… Prepro… rsq     0.989      NA     1 recipe       line…     2
#>  5 plus_pca_… Prepro… rmse    0.586      NA     1 recipe       line…     3
#>  6 plus_pca_… Prepro… rsq     0.989      NA     1 recipe       line…     3
#>  7 plus_pca_… Prepro… rmse    0.591      NA     1 recipe       line…     4
#>  8 plus_pca_… Prepro… rsq     0.988      NA     1 recipe       line…     4
#>  9 plus_pca_… Prepro… rmse    0.590      NA     1 recipe       line…     5
#> 10 plus_pca_… Prepro… rsq     0.988      NA     1 recipe       line…     5
#> # ℹ 30 more rows
…
