Tuning and Comparing Models • workflowsets
…
The result column now has the results of each tune_grid() call.

From these results, we can get quick assessments of how well these models classified the data:

rank_results(all_workflows, rank_metric = "roc_auc")
#> # A tibble: 84 × 9
#>    wflow_id    .config    .metric  mean std_err     n preprocessor model    rank
#>    <chr>       <chr>      <chr>   <dbl>   <dbl> <int> <chr>        <chr>   <int>
#>  1 formula_ma… Preproces… accura… 0.911 0.00407    25 formula      discri…     1
#>  2 formula_ma… Preproces… roc_auc 0.969 0.00319    25 formula      discri…     1
#>  3 formula_ma… Preproces… accura… 0.904 0.00388    25 formula      discri…     2
#>  4 formula_ma… Preproces… roc_auc 0.968 0.00213    25 formula      discri…     2
#>  5 formula_re… Preproces… accura… 0.872 0.00547    25 formula      discri…     3
#>  6 formula_re… Preproces… roc_auc 0.952 0.00293    25 formula      discri…     3
#>  7 formula_re… Preproces… accura… 0.858 0.00564    25 formula      discri…     4
#>  8 formula_re… Preproces… roc_auc 0.951 0.00253    25 formula      discri…     4
#>  9 formula_re… Preproces… accura… 0.837 0.00712    25 formula      discri…     5
#> 10 formula_re… Preproces… roc_auc 0.951 0.00290    25 formula      discri…     5
#> # … with 74 more rows
…
Not much of a difference in performance; it may be prudent to use the additive model (via prod_degree = 1).

We can also pull out the results of tune_grid() for this model:

mars_results <- 
  all_workflows %>% 
  extract_workflow_set_result("formula_mars")
mars_results
#> # Tuning results
#> # Bootstrap sampling 
#> # A tibble: 25 × 4
#>    splits            id          .metrics         .notes          
#>    <list>            <chr>       <list>           <list>          
#>  1 <split [375/134]> Bootstrap01 <tibble [4 × 5]> <tibble [0 × 1]>
#>  2 <split [375/132]> Bootstrap02 <tibble [4 × 5]> <tibble [0 × 1]>
#>  3 <split [375/142]> Bootstrap03 <tibble [4 × 5]> <tibble [0 × 1]>
#>  4 <split [375/146]> Bootstrap04 <tibble [4 × 5]> <tibble [0 × 1]>
#>  5 <split [375/135]> Bootstrap05 <tibble [4 × 5]> <tibble [0 × 1]>
#>  6 <split [375/131]> Bootstrap06 <tibble [4 × 5]> <tibble [0 × 1]>
#>  7 <split [375/139]> Bootstrap07 <tibble [4 × 5]> <tibble [0 × 1]>
#>  8 <split [375/136]> Bootstrap08 <tibble [4 × 5]> <tibble [0 × 1]>
#>  9 <split [375/137]> Bootstrap09 <tibble [4 × 5]> <tibble [0 × 1]>
#> 10 <split [375/139]> Bootstrap10 <tibble [4 × 5]> <tibble [0 × 1]>
#> # … with 15 more rows
…
